{
	"info": {
		"_postman_id": "13e4233c-fb79-4a07-923e-dfcb219c21a0",
		"name": "Agralan",
		"schema": "https://schema.getpostman.com/json/collection/v2.1.0/collection.json"
	},
	"item": [
		{
			"name": "Category put",
			"protocolProfileBehavior": {
				"disabledSystemHeaders": {
					"accept": true,
					"accept-encoding": true,
					"connection": true
				}
			},
			"request": {
				"method": "PUT",
				"header": [
					{
						"key": "Content-Type",
						"value": "text/xml",
						"type": "text",
						"disabled": true
					}
				],
				"body": {
					"mode": "raw",
					"raw": "{\n    \"name\": \"Updated name of 5\",\n    \"ordering\": 3\n}",
					"options": {
						"raw": {
							"language": "json"
						}
					}
				},
				"url": {
					"raw": "localhost:8000/agralan/category/5",
					"host": [
						"localhost"
					],
					"port": "8000",
					"path": [
						"agralan",
						"category",
						"5"
					]
				}
			},
			"response": []
		},
		{
			"name": "Category list",
			"protocolProfileBehavior": {
				"disabledSystemHeaders": {
					"accept": true,
					"accept-encoding": true,
					"connection": true
				},
				"disableBodyPruning": true
			},
			"request": {
				"method": "GET",
				"header": [
					{
						"key": "Content-Type",
						"value": "text/xml",
						"type": "text",
						"disabled": true
					}
				],
				"body": {
					"mode": "raw",
					"raw": "",
					"options": {
						"raw": {
							"language": "json"
						}
					}
				},
				"url": {
					"raw": "localhost:8000/agralan/category",
					"host": [
						"localhost"
					],
					"port": "8000",
					"path": [
						"agralan",
						"category"
					]
				}
			},
			"response": []
		},
		{
			"name": "Category delete",
			"protocolProfileBehavior": {
				"disabledSystemHeaders": {
					"accept": true,
					"accept-encoding": true,
					"connection": true
				}
			},
			"request": {
				"method": "DELETE",
				"header": [
					{
						"key": "Content-Type",
						"value": "text/xml",
						"type": "text",
						"disabled": true
					}
				],
				"url": {
					"raw": "localhost:8000/agralan/category/10",
					"host": [
						"localhost"
					],
					"port": "8000",
					"path": [
						"agralan",
						"category",
						"10"
					]
				}
			},
			"response": []
		},
		{
			"name": "Category post",
			"protocolProfileBehavior": {
				"disabledSystemHeaders": {
					"accept": true,
					"accept-encoding": true,
					"connection": true
				}
			},
			"request": {
				"method": "POST",
				"header": [
					{
						"key": "Content-Type",
						"value": "text/xml",
						"type": "text",
						"disabled": true
					}
				],
				"body": {
					"mode": "raw",
					"raw": "{\n    \"name\": \"New category name...\"\n}",
					"options": {
						"raw": {
							"language": "json"
						}
					}
				},
				"url": {
					"raw": "localhost:8000/agralan/category",
					"host": [
						"localhost"
					],
					"port": "8000",
					"path": [
						"agralan",
						"category"
					]
				}
			},
			"response": []
		},
		{
			"name": "Offers list",
			"protocolProfileBehavior": {
				"disabledSystemHeaders": {
					"accept": true,
					"accept-encoding": true,
					"connection": true
				},
				"disableBodyPruning": true
			},
			"request": {
				"method": "GET",
				"header": [
					{
						"key": "Content-Type",
						"value": "text/xml",
						"type": "text",
						"disabled": true
					}
				],
				"body": {
					"mode": "raw",
					"raw": "",
					"options": {
						"raw": {
							"language": "json"
						}
					}
				},
				"url": {
					"raw": "localhost:8000/agralan/offers",
					"host": [
						"localhost"
					],
					"port": "8000",
					"path": [
						"agralan",
						"offers"
					]
				}
			},
			"response": []
		},
		{
			"name": "Offers list with params",
			"protocolProfileBehavior": {
				"disabledSystemHeaders": {
					"accept": true,
					"accept-encoding": true,
					"connection": true
				},
				"disableBodyPruning": true
			},
			"request": {
				"method": "GET",
				"header": [
					{
						"key": "Content-Type",
						"value": "text/xml",
						"type": "text",
						"disabled": true
					}
				],
				"body": {
					"mode": "raw",
					"raw": "",
					"options": {
						"raw": {
							"language": "json"
						}
					}
				},
				"url": {
					"raw": "localhost:8000/agralan/offers?category=5",
					"host": [
						"localhost"
					],
					"port": "8000",
					"path": [
						"agralan",
						"offers"
					],
					"query": [
						{
							"key": "category",
							"value": "5"
						}
					]
				}
			},
			"response": []
		},
		{
			"name": "Offers single",
			"protocolProfileBehavior": {
				"disabledSystemHeaders": {
					"accept": true,
					"accept-encoding": true,
					"connection": true
				},
				"disableBodyPruning": true
			},
			"request": {
				"method": "GET",
				"header": [
					{
						"key": "Content-Type",
						"value": "text/xml",
						"type": "text",
						"disabled": true
					}
				],
				"body": {
					"mode": "raw",
					"raw": "",
					"options": {
						"raw": {
							"language": "json"
						}
					}
				},
				"url": {
					"raw": "localhost:8000/agralan/offers/8",
					"host": [
						"localhost"
					],
					"port": "8000",
					"path": [
						"agralan",
						"offers",
						"8"
					]
				}
			},
			"response": []
		},
		{
			"name": "Offers put",
			"protocolProfileBehavior": {
				"disabledSystemHeaders": {
					"accept": true,
					"accept-encoding": true,
					"connection": true
				}
			},
			"request": {
				"method": "PUT",
				"header": [
					{
						"key": "Content-Type",
						"value": "text/xml",
						"type": "text",
						"disabled": true
					}
				],
				"body": {
					"mode": "raw",
					"raw": "{\n    \"title\": \"new title for offer 10\",\n    \"description\" : \"desc new\",\n    \"price\": 21.33,\n    \"category\": 5\n}",
					"options": {
						"raw": {
							"language": "json"
						}
					}
				},
				"url": {
					"raw": "localhost:8000/agralan/offers/10",
					"host": [
						"localhost"
					],
					"port": "8000",
					"path": [
						"agralan",
						"offers",
						"10"
					]
				}
			},
			"response": []
		},
		{
			"name": "Offers create",
			"protocolProfileBehavior": {
				"disabledSystemHeaders": {
					"accept": true,
					"accept-encoding": true,
					"connection": true
				}
			},
			"request": {
				"method": "POST",
				"header": [
					{
						"key": "Content-Type",
						"value": "text/xml",
						"type": "text",
						"disabled": true
					}
				],
				"body": {
					"mode": "raw",
					"raw": "{\n    \"title\": \"Title for new offer\",\n    \"description\" : \"Description for new offer\",\n    \"price\": 99.88,\n    \"category\": 5\n}",
					"options": {
						"raw": {
							"language": "json"
						}
					}
				},
				"url": {
					"raw": "localhost:8000/agralan/offers",
					"host": [
						"localhost"
					],
					"port": "8000",
					"path": [
						"agralan",
						"offers"
					]
				}
			},
			"response": []
		},
		{
			"name": "Offers delete",
			"protocolProfileBehavior": {
				"disabledSystemHeaders": {
					"accept": true,
					"accept-encoding": true,
					"connection": true
				}
			},
			"request": {
				"method": "DELETE",
				"header": [
					{
						"key": "Content-Type",
						"value": "text/xml",
						"type": "text",
						"disabled": true
					}
				],
				"url": {
					"raw": "localhost:8000/agralan/offers/14",
					"host": [
						"localhost"
					],
					"port": "8000",
					"path": [
						"agralan",
						"offers",
						"14"
					]
				}
			},
			"response": []
		}
	]
}